R in 3 Months Week 2 (Data Wrangling and Analysis)
…
case_when()

penguins |>
  mutate(weight_category = case_when(
    body_mass_g > 4000 ~ "Over 4000 grams",
    body_mass_g < 4000 & body_mass_g >= 3500 ~ "Between 3500 and 4000 grams",
    body_mass_g < 3500 ~ "Less than 3500 grams"
  )) |> 
  select(body_mass_g, weight_category)

# A tibble: 344 × 2
   body_mass_g weight_category            
         <int> <chr>                      
 1        3750 Between 3500 and 4000 grams
 2        3800 Between 3500 and 4000 grams
 3        3250 Less than 3500 grams       
 4          NA <NA>                       
 5        3450 Less than 3500 grams       
 6        3650 Between 3500 and 4000 grams
 7        3625 Between 3500 and 4000 grams
 8        4675 Over 4000 grams            
 9        3475 Less than 3500 grams       
10        4250 Over 4000 grams            
# ℹ 334 more rows
…
